<?xml version="1.0" encoding="utf-8"?>
<!-- Generator: Adobe Illustrator 23.0.2, SVG Export Plug-In . SVG Version: 6.00 Build 0)  -->
<svg version="1.1" id="Capa_1" xmlns="http://www.w3.org/2000/svg" xmlns:xlink="http://www.w3.org/1999/xlink" x="0px" y="0px"
	 viewBox="0 0 520 520" style="enable-background:new 0 0 520 520;" xml:space="preserve">
<style type="text/css">
	.st0{fill:#D71921;}
	.st1{fill:#FFFFFF;}
</style>
<path class="st0" d="M519.99,170.28c-0.07-6.83-0.38-13.46-1.12-19.9C502.01,1.18,334.43-42.77,260,44.63
	C185.57-42.77,17.99,1.18,1.13,150.38c-0.74,6.45-1.05,13.07-1.12,19.9c-1.82,187.63,255.67,347.24,259.96,349.68V520
	c0,0,0.02-0.01,0.03-0.02c0.01,0.01,0.03,0.02,0.03,0.02v-0.03C264.32,517.52,521.81,357.91,519.99,170.28z"/>
<g>
	<g>
		<g>
			<path class="st1" d="M108.65,330.2v6.18h10.02v8.14h-10.02v14.52h-9.13v-36.98h20.17v8.14H108.65z"/>
			<path class="st1" d="M133.95,330.2v6.18h10.29v8.14h-10.29v6.38h10.85v8.14h-19.98v-36.98h19.98v8.14H133.95z"/>
			<path class="st1" d="M162.64,322.06h10.95l6.57,10.05l6.57-10.05h10.95l-12.95,19.23v17.76h-9.13v-17.76L162.64,322.06z"/>
			<path class="st1" d="M224.79,352.61l-2.42,6.43h-9.69l13.51-36.98h9.97l13.23,36.98h-9.74l-2.28-6.43H224.79z M231.17,333.48
				h-0.09l-3.77,11.77h7.59L231.17,333.48z"/>
			<path class="st1" d="M261.4,350.9h10.95v8.14h-20.08v-36.98h9.13V350.9z"/>
			<path class="st1" d="M284.5,330.2v6.18h10.29v8.14H284.5v6.38h10.85v8.14h-19.98v-36.98h19.98v8.14H284.5z"/>
			<path class="st1" d="M336.07,338.39c-0.03,2.71-0.25,5.26-0.65,7.63c-0.4,2.37-1.38,4.72-2.93,7.04
				c-1.71,2.52-3.81,4.35-6.31,5.49c-2.5,1.14-5.22,1.72-8.18,1.72c-5.53,0-10.03-1.79-13.51-5.37c-3.48-3.58-5.22-8.28-5.22-14.1
				c0-6.02,1.76-10.84,5.29-14.47c3.53-3.63,8.11-5.45,13.77-5.45c3.6,0,6.76,0.86,9.48,2.58c2.72,1.72,4.84,4.31,6.36,7.77
				L325.5,335c-0.62-1.73-1.58-3.14-2.89-4.22s-2.87-1.62-4.71-1.62c-2.83,0-5.01,1.11-6.54,3.33c-1.54,2.22-2.38,4.66-2.54,7.31
				c-0.03,0.16-0.05,0.34-0.05,0.52c0,0.18,0,0.35,0,0.51c0,0.03,0,0.07,0,0.12c0,0.05,0,0.11,0,0.17c0.06,2.81,0.88,5.4,2.47,7.75
				c1.58,2.35,3.85,3.53,6.8,3.53c1.99,0,3.66-0.54,5.03-1.62c1.37-1.08,2.14-2.68,2.33-4.81h-7.45v-7.6H336.07z"/>
			<path class="st1" d="M358.48,343.88l11.04,15.16h-11.37l-8.62-14.22h-0.09v14.22h-9.13v-36.98h13.65
				c3.48,0.03,6.38,0.96,8.71,2.77c2.33,1.81,3.49,4.7,3.49,8.66c0,2.55-0.66,4.82-1.98,6.79c-1.32,1.98-3.22,3.2-5.71,3.65V343.88z
				 M349.44,338.63h0.89c0.15,0.03,0.31,0.05,0.46,0.05s0.29,0,0.42,0c1.37-0.07,2.62-0.4,3.75-1.01c1.13-0.6,1.7-1.81,1.7-3.6
				c0-1.82-0.57-3.03-1.7-3.64c-1.13-0.61-2.38-0.95-3.75-1.02c-0.12,0-0.26,0-0.42,0s-0.31,0-0.46,0h-0.89V338.63z"/>
			<path class="st1" d="M381.17,359.04h-9.13v-36.98h9.13V359.04z"/>
			<path class="st1" d="M396.12,352.61l-2.42,6.43h-9.69l13.51-36.98h9.97l13.23,36.98h-9.74l-2.28-6.43H396.12z M402.5,333.48
				h-0.09l-3.77,11.77h7.59L402.5,333.48z"/>
		</g>
	</g>
	<path class="st1" d="M431.04,215.07c1.04,3.42,1.81,5,2.28,9.28c0.47,4.23,0.3,6.13,0.3,10.39c0,5.59-2.26,12.05-7.86,12.05
		c-3.09,0-4.7-4.18-4.7-7.27c-1.31,0.86-2.23,1.55-3.81,1.55c-2.83,0-3.81-2.14-4.29-5.77c0.12-7.62,2.49-7.32,2.1-11.4
		c-1.42-10.34-9.96-18.79-16.43-21.42l0.42,7.32l-5.04,3.55l4.2,3.36l11.5,75.89l11.1,12.41h-41.78l-6.05-18.24L366.64,305h-43.09
		l10.45-12.41l13.24-75.89l3.99-3.36l-4.83-3.55l-0.42-7.32l-15.4,26.97c0.46,1.16,0.72,3.14,0.72,4.46
		c0,5.59-4.53,10.12-10.12,10.12c-5.59,0-10.4-5.97-7.53-12.28l-28.96-32.65l-2.01,10.7l-4.02,2.29l25.12,34.76h-24.81l21.55,51.58
		l7.83,7.18h-35.25l-13.36-29.57l-15.37,29.57H205.2l9.14-7.18l26.78-51.58h-22.85l22.82-34.76l-4.59-2.01l-1.43-10.98l-24.66,30.34
		c0.11,0.6,0.98,3.83,0.98,4.46c0,5.59-4.53,10.12-10.12,10.12c-5.59,0-10.12-3.97-10.12-9.57c0-0.78,0.09-1.98,0.25-2.71
		l-22.27-27.44l2.05,11.75l-3.96,0.74v3.83l3.89-0.02l8.6,72.34l11.14,12.65h-39.84l-6.57-18.11l-5.74,18.11H99.47l10-12.65
		l8.31-72.34l4.05,0.02v-3.83l-3.77-0.74l1.14-11.75c0,0-12.62,9.21-14.29,22.89c-0.39,4.07,1.98,3.78,2.1,11.39
		c-0.48,3.63-1.46,5.77-4.29,5.77c-1.57,0-2.5-0.68-3.81-1.55c0,3.1-1.6,7.27-4.7,7.27c-5.6,0-7.86-6.45-7.86-12.05
		c0-4.26-0.17-6.16,0.3-10.39c0.47-4.28,1.1-7.76,2.14-11.19c4.7-13.89,9.39-19.93,18.59-32.68l-1.81-5.37l21.27-16.01l1.42-5.13
		h4.58l0.03-5.51c-10.03-3.38-21.35-12.61-26.72-21.86c-1.08,0.47-2.26,0.73-3.49,0.73c-5.41,0-9.79-4.97-9.79-11.1
		c0-5.06,2.98-9.33,7.06-10.66c-0.04-0.84-0.07-1.68-0.07-2.52c0-25.12,19.49-45.47,43.53-45.47s43.53,20.36,43.53,45.47
		c0,1.41-0.06,2.81-0.18,4.19c2.45,2.02,4.05,5.29,4.05,8.99c0,6.13-4.38,11.1-9.79,11.1l-0.77-0.03
		c-4.44,7.92-15.87,18.3-26.3,21.4v5.28h4.24l1.12,5.58l18.18,15.56l-2.04,5.37l25.49,30.02l24.38-32.69l-1.85-7.39l26.08-14.51
		l0.03-10.29c-12.97-3.15-23.85-11.75-29.84-23.44h-13.52c-0.71-3.56-1.17-7.23-1.17-11c0-29.77,24.25-52.9,53.66-54.37
		c0.84-0.05,1.69,0,2.55,0c29.44,0.85,50.37,24.36,50.45,54.37c0.01,2.68-0.57,8.43-0.94,11h-12.62
		c-4.88,10.32-13.96,20.34-27.69,23.44l0.02,10.29l24.15,15.17l-1.92,6.74l27.06,32.69l21.83-33.7l-1.6-5.71l17.8-13.36l-2.01-5.88
		h8.75l-0.06-4.38c-11.22-2.27-20.91-8.83-27.27-18.23c-1.06,0.45-2.22,0.69-3.42,0.69c-5.41,0-9.79-4.97-9.79-11.1
		c0-4.44,2.29-8.26,5.61-10.04c-0.23-1.89-0.34-3.81-0.34-5.75c0-25.12,19.49-45.47,43.53-45.47c24.04,0,43.53,20.36,43.53,45.47
		c0,1.89-0.11,3.76-0.32,5.59c3.48,1.7,5.93,5.63,5.93,10.2c0,6.13-4.38,11.1-9.79,11.1c-1.3,0-2.54-0.29-3.68-0.81
		c-6,8.93-16.41,15.72-26.88,18.34l0.04,4.38h9.71l-2.15,5.88l16.79,13.36l-1.73,5.71C416.16,190.29,427.18,199.91,431.04,215.07"/>
</g>
</svg>
